{
  "userSays": [
    {
      "id": "65b4418c-c992-4cee-8062-ff15efca029d",
      "data": [
        {
          "text": "What about "
        },
        {
          "text": "tomorrow",
          "alias": "date",
          "meta": "@sys.date",
          "userDefined": false
        },
        {
          "text": "?"
        }
      ],
      "isTemplate": false,
      "count": 0
    }
  ],
  "id": "98199125-8fc6-466f-98b6-7648e14b06e7",
  "name": "weather.context",
  "auto": true,
  "contexts": [
    "location"
  ],
  "responses": [
    {
      "resetContexts": false,
      "affectedContexts": [
        {
          "name": "location",
          "lifespan": 5
        }
      ],
      "parameters": [
        {
          "required": false,
          "dataType": "",
          "name": "geo-city",
          "value": "#location.geo-city"
        },
        {
          "dataType": "@sys.date",
          "name": "date",
          "value": "$date",
          "isList": false
        }
      ],
      "messages": [
        {
          "type": 0,
          "speech": "Sorry I don\u0027t know the weather for $date-period in #location.geo-city"
        }
      ]
    }
  ],
  "priority": 500000,
  "webhookUsed": true,
  "webhookForSlotFilling": false,
  "fallbackIntent": false,
  "events": []
}